{
  "applications": "*",
  "changelogDate": "20230318140951",
  "dto": "mapstruct",
  "embedded": false,
  "entityTableName": "courses",
  "fields": [],
  "fluentMethods": true,
  "jpaMetamodelFiltering": false,
  "name": "Courses",
  "pagination": "infinite-scroll",
  "readOnly": false,
  "relationships": [
    {
      "otherEntityName": "utilisateur",
      "otherEntityRelationshipName": "courses",
      "relationshipName": "utilisateur",
      "relationshipType": "one-to-many"
    }
  ],
  "service": "serviceImpl"
}
