{
  "applications": "*",
  "changelogDate": "20230318140949",
  "dto": "mapstruct",
  "embedded": false,
  "entityTableName": "produit",
  "fields": [
    {
      "fieldName": "idProduit",
      "fieldType": "Long",
      "fieldValidateRules": ["required", "unique"]
    },
    {
      "fieldName": "nomProduit",
      "fieldType": "String",
      "fieldValidateRules": ["required", "minlength", "pattern"],
      "fieldValidateRulesMinlength": "2",
      "fieldValidateRulesPattern": "^[A-Z][a-z]+\\d$"
    },
    {
      "fieldName": "prix",
      "fieldType": "Long",
      "fieldValidateRules": ["required"]
    }
  ],
  "fluentMethods": true,
  "jpaMetamodelFiltering": false,
  "name": "Produit",
  "pagination": "infinite-scroll",
  "readOnly": false,
  "relationships": [
    {
      "otherEntityField": "id",
      "otherEntityName": "panier",
      "otherEntityRelationshipName": "produit",
      "ownerSide": true,
      "relationshipName": "estComposeDe",
      "relationshipType": "many-to-many"
    },
    {
      "otherEntityName": "boutique",
      "otherEntityRelationshipName": "produit",
      "relationshipName": "boutique",
      "relationshipType": "one-to-many"
    }
  ],
  "service": "serviceImpl"
}
